make: 'cgp3d_seq_i' is up to date.
Welcome to Extrae 3.5.2
Extrae: Parsing the configuration file (./extrae.xml) begins
Extrae: Tracing package is located on $EXTRAE_HOME
Extrae: Generating intermediate files for Paraver traces.
Extrae: PAPI domain set to ALL for HWC set 1
Extrae: HWC set 1 contains following counters < PAPI_TOT_CYC (0x8000003b) PAPI_TOT_INS (0x80000032) PAPI_FP_INS (0x80000034) PAPI_LST_INS (0x8000003c) > - never changes
Extrae: PAPI domain set to ALL for HWC set 2
Extrae: HWC set 2 contains following counters < PAPI_TOT_INS (0x80000032) PAPI_L1_DCM (0x80000000) PAPI_L2_DCM (0x80000002) PAPI_L3_TCM (0x80000008) > - never changes
Extrae: Resource usage is disabled at flush buffer.
Extrae: Memory usage is disabled at flush buffer.
Extrae: Warning! <openmp> tag will be ignored. This library does not support OpenMP.
Extrae: Tracing buffer can hold 500000 events
Extrae: Circular buffer disabled.
Extrae: Dynamic memory instrumentation is disabled.
Extrae: Basic I/O memory instrumentation is disabled.
Extrae: System calls instrumentation is disabled.
Extrae: Parsing the configuration file (./extrae.xml) has ended
Extrae: Intermediate traces will be stored in /scratch/nas/1/sca0001/numerical-assignment/paraver
Extrae: Tracing mode is set to: Detail.
Extrae: Successfully initiated with 1 tasks and 1 threads

321 steps, residual reduction 9.2302e-07 (<= tol 1e-06); time 19.4863
rnorm = 2.02861e-07
Extrae: Intermediate raw trace file created : /scratch/nas/1/sca0001/numerical-assignment/paraver/set-0/TRACE@boada-3.0000027169000000000000.mpit
Extrae: Intermediate raw sym file created : /scratch/nas/1/sca0001/numerical-assignment/paraver/set-0/TRACE@boada-3.0000027169000000000000.sym
Extrae: Deallocating memory.
Extrae: Application has ended. Tracing has been terminated.
merger: Output trace format is: Paraver
merger: Extrae 3.5.2
mpi2prv: Assigned nodes < boada-3 >
mpi2prv: Assigned size per processor < <1 Mbyte >
mpi2prv: File /scratch/nas/1/sca0001/numerical-assignment/paraver/set-0/TRACE@boada-3.0000027169000000000000.mpit is object 1.1.1 on node boada-3 assigned to processor 0
mpi2prv: Time synchronization has been turned off
mpi2prv: A total of 7 symbols were imported from TRACE.sym file
mpi2prv: 0 function symbols imported
mpi2prv: 7 HWC counter descriptions imported
mpi2prv: Checking for target directory existance... exists, ok!
mpi2prv: Selected output trace format is Paraver
mpi2prv: Stored trace format is Paraver
mpi2prv: Searching synchronization points... done
mpi2prv: Time Synchronization disabled.
mpi2prv: Circular buffer enabled at tracing time? NO
mpi2prv: Parsing intermediate files
mpi2prv: Progress 1 of 2 ... 5% 10% 15% 20% 25% 30% 35% 40% 45% 50% 55% 60% 65% 70% 75% 80% 85% 90% 95% done
mpi2prv: Processor 0 succeeded to translate its assigned files
mpi2prv: Elapsed time translating files: 0 hours 0 minutes 0 seconds
mpi2prv: Elapsed time sorting addresses: 0 hours 0 minutes 0 seconds
mpi2prv: Generating tracefile (intermediate buffers of 6710784 events)
         This process can take a while. Please, be patient.
mpi2prv: Progress 2 of 2 ... 5% 10% 15% 20% 25% 30% 35% 40% 45% 50% 55% 60% 65% 70% 75% 80% 85% 90% 95% done
mpi2prv: Elapsed time merge step: 0 hours 0 minutes 0 seconds
mpi2prv: Resulting tracefile occupies 83634 bytes
mpi2prv: Removing temporal files... done
mpi2prv: Elapsed time removing temporal files: 0 hours 0 minutes 0 seconds
mpi2prv: Congratulations! cgp3d_seq_i.prv has been generated.
