Extrae: WARNING! omp_get_thread_num_real is a NULL pointer. Did the initialization of this module trigger? Retrying initialization...
Extrae: Warning! API tries to initialize more than once
Extrae:          Previous initialization was done by API
